Project 1: Exploratory Data Analysis
…
Before doing anything else, I edited the column names in ‘Final’ to make them shorter and easier to recall. The column ‘County’ stayed the same, ‘White Alone’ changed to ‘White’, ‘Black or African American Alone’ changed to ‘Black’, Median Household Income (In 2017 Inflation Adjusted Dollars) changed to ‘Income’, ‘Persons with Limited Access to Healthy Foodschanged to 'Limited_Access', andChildren Eligible for Free Lunch (Persons < 18 Years)` changed to ’Free_Lunch’.

Final %>% filter(Obese == max(Obese))

## # A tibble: 1 x 7
##   County                 White Black Income Limited_Access Obese Free_Lunch
##   <chr>                  <dbl> <dbl>  <dbl>          <dbl> <dbl>      <dbl>
## 1 Angelina County, Texas 0.781 0.148  46472          0.132 0.336      0.575

Final %>% arrange(Obese)

## # A tibble: 53 x 7
##    County                 White Black Income Limited_Access Obese Free_Lunch
##    <chr>                  <dbl> <dbl>  <dbl>          <dbl> <dbl>      <dbl>
##  1 Collin County, Texas   0.711 0.093  90124          0.021 0.25       0.205
##  2 Brazos County, Texas   0.748 0.104  43907          0.181 0.26       0.514
##  3 Bandera County, Texas  0.923 0.01   56413          0.047 0.275      0.424
##  4 Brown County, Texas    0.917 0.04   43062          0.156 0.275      0.472
##  5 Brewster County, Texas 0.921 0.001  38906          0.105 0.276      0.403
##  6 Austin County, Texas   0.806 0.09   62614          0.037 0.278      0.449
##  7 Atascosa County, Texas 0.923 0.007  55194          0.059 0.279      0.571
##  8 Aransas County, Texas  0.878 0.016  44601          0.168 0.28       0.513
##  9 Bexar County, Texas    0.794 0.075  53999          0.116 0.282      0.568
## 10 Caldwell County, Texas 0.778 0.066  51346          0.076 0.284      0.6  
## # … with 43 more rows

Final %>% select(County, Limited_Access, Obese, everything())

## # A tibble: 53 x 7
##    County                  Limited_Access Obese White Black Income Free_Lunch
##    <chr>                            <dbl> <dbl> <dbl> <dbl>  <dbl>      <dbl>
##  1 Anderson County, Texas           0.105 0.334 0.733 0.209  42313      0.527
##  2 Andrews County, Texas            0.138 0.288 0.918 0.021  70753      0.333
##  3 Angelina County, Texas           0.132 0.336 0.781 0.148  46472      0.575
##  4 Aransas County, Texas            0.168 0.28  0.878 0.016  44601      0.513
##  5 Archer County, Texas             0.057 0.299 0.945 0.012  63192      0.252
##  6 Armstrong County, Texas          0.294 0.305 0.944 0.02   68750      0.27 
##  7 Atascosa County, Texas           0.059 0.279 0.923 0.007  55194      0.571
##  8 Austin County, Texas             0.037 0.278 0.806 0.09   62614      0.449
##  9 Bailey County, Texas             0.041 0.297 0.857 0.016  43523      0.724
## 10 Bandera County, Texas            0.047 0.275 0.923 0.01   56413      0.424
## # … with 43 more rows
…
